{
  "edges" : 	[[[1,"SAP"],[2,"PLC"],"S"],
		[[1,"SAP"],[3,"SO3"],"E"],
		[[1,"SAP"],[4,"SFM"],"E"],
		[[1,"SAP"],[5,"FAULTMNGR"],"S"],
		[[2,"PLC"],[4,"SFM"],"S"],
		[[4,"SFM"],[6,"PLC"],"B"],
  		[[6,"PLC"],[3,"SO3"],"S"],
  		[[3,"SO3"],[7,"PLC"],"B"],
  		[[7,"PLC"],[8,"CFP1"],"E"],
  		[[7,"PLC"],[9,"CFP2"],"E"],
  		[[5,"FAULTMNGR"],[10,"OP"],"S"],
		[[10,"OP"] ,[11,"FAULTMNGR"],"S"],
		[[11,"FAULTMNGR"],[12,"SO3"],"S"],
		[[11,"FAULTMNGR"],[13,"SAP"],"S"],
		[[11,"FAULTMNGR"],[14,"PLC"],"S"],
		[[3,"SO3"],[5,"FAULTMNGR"],"S"],
		[[5,"FAULTMNGR"],[7,"PLC"],"S"]],
		
  "stim_set" :	["alarm", "eff", "getsfm", "getso3", "fault", "fixed", "off1", "off2", "on1", "on2", "rate", "repair", "res", "start", "D", "N"],
 
  "cka_set" : ["ALARM", "ERROR", "FAIL", "GETFLOW", "GETSO3", "MONITOR", "OFF1", "OFF2", "ON1", "ON2", "PID", "RATIO", "WAITSFM", "WAITSO3", "SAMPLE", "IDLE", "FAULT", "0", "1"],
  
  "constants" : ["DEADBAND", "FALSE", "FLOWSETPOINT", "MAXPUMPFLOW", "NULL", "PID", "RATIO", "SAMPLE", "TRUE"],
  
  "starting_agent" : [[1,"SAP"]]
}
