{
  "edges" : 	[[[1,"SAP"],[3,"PLC"],"S"],
  		[[1,"SAP"],[4,"SFM"],"E"],
  		[[1,"SAP"],[5,"SO3"],"E"],
  		[[3,"PLC"],[4,"SFM"],"S"],
  		[[3,"PLC"],[5,"SO3"],"S"],
  		[[4,"SFM"],[6,"PLC"],"B"],
  		[[5,"SO3"],[6,"PLC"],"B"],
  		[[6,"PLC"],[7,"CFP1"],"E"],
  		[[6,"PLC"],[8,"CFP2"],"E"],
  		[[2,"SO3"],[3,"PLC"],"S"],
  		[[3,"PLC"],[9,"OP"],"S"],
  		[[9,"OP"],[10,"PLC"],"S"],
  		[[10,"PLC"],[11,"SAP"],"S"],
  		[[10,"PLC"],[12,"SO3"],"S"]],
		
  "stim_set" :	["getdata", "alarm", "eff", "fault", "fixed", "off1", "off2", "on1", "on2", "rate", "repair", "res", "start", "D", "N"],
 
  "cka_set" : ["WAITSFM", "WAITSO3", "WAITRESULTS", "ALARM", "ERROR", "FAIL", "GETFLOW", "GETSO3", "MONITOR", "OFF1", "OFF2", "ON1", "ON2", "PID", "RATIO", "SAMPLE", "0", "1"],
  
  "constants" : ["DEADBAND", "FALSE", "FLOWSETPOINT", "MAXPUMPFLOW", "NULL", "PID", "RATIO", "SAMPLE", "TRUE"],
  
  "starting_agent" : [[1,"SAP"], [2,"SO3"]]
}
