{
  "edges" : 	[[[1,"SAP"],[3,"PLC"],"S"],
  		[[1,"SAP"],[4,"SFM"],"E"],
  		[[1,"SAP"],[6,"SO3"],"E"],
  		[[3,"PLC"],[4,"SFM"],"S"],
  		[[4,"SFM"],[5,"PLC"],"B"],
  		[[5,"PLC"],[6,"SO3"],"S"],
  		[[6,"SO3"],[7,"PLC"],"B"],
  		[[7,"PLC"],[8,"CFP1"],"E"],
  		[[7,"PLC"],[9,"CFP2"],"E"],
  		[[2,"SO3"],[3,"PLC"],"S"],
  		[[3,"PLC"],[10,"OP"],"S"],
  		[[10,"OP"],[11,"PLC"],"S"],
  		[[11,"PLC"],[12,"SAP"],"S"],
  		[[11,"PLC"],[13,"SO3"],"S"]],
		
  "stim_set" :	["getsfm", "getso3", "alarm", "eff", "fault", "fixed", "off1", "off2", "on1", "on2", "rate", "repair", "res", "start", "D", "N"],
 
  "cka_set" : ["WAITSFM", "WAITSO3", "ALARM", "ERROR", "FAIL", "GETFLOW", "GETSO3", "MONITOR", "OFF1", "OFF2", "ON1", "ON2", "PID", "RATIO", "SAMPLE", "0", "1"],
  
  "constants" : ["DEADBAND", "FALSE", "FLOWSETPOINT", "MAXPUMPFLOW", "NULL", "PID", "RATIO", "SAMPLE", "TRUE"],
  
  "starting_agent" : [[1,"SAP"], [2,"SO3"]]
}
