
External Stimuli: {alarm, eff, fault, fixed, getdata, off1, off2, on1, on2, rate, repair, res, start, 𝖉, 𝖓}
Behaviours      : {ALARM, ERROR, FAIL, FAULT, GETFLOW, GETSO3, IDLE, MONITOR, OFF1, OFF2, ON1, ON2, PID, RATIO, SAMPLE, WAITRESULTS, WAITSFM, WAITSO3, 0, 1}
Named Constants : {DEADBAND, FALSE, FLOWSETPOINT, MAXPUMPFLOW, NULL, PID, RATIO, SAMPLE, TRUE}
Agents          : {CFP1, CFP2, FAULTMNGR, OP, PLC, SAP, SFM, SO3}


------------------------
INTENDED INTERACTIONS   
------------------------
	SAP  ->S  PLC  ->S  SO3  ->S  FAULTMNGR  ->S  PLC  ->E  CFP1
	SAP  ->S  PLC  ->S  SO3  ->S  FAULTMNGR  ->S  PLC  ->E  CFP2
	SAP  ->S  PLC  ->S  SO3  ->S  FAULTMNGR  ->S  OP  ->S  FAULTMNGR  ->S  SO3
	SAP  ->S  PLC  ->S  SO3  ->S  FAULTMNGR  ->S  OP  ->S  FAULTMNGR  ->S  SAP
	SAP  ->S  PLC  ->S  SO3  ->S  FAULTMNGR  ->S  OP  ->S  FAULTMNGR  ->S  PLC
	SAP  ->S  PLC  ->S  SO3  ->B  PLC  ->E  CFP1
	SAP  ->S  PLC  ->S  SO3  ->B  PLC  ->E  CFP2
	SAP  ->S  PLC  ->S  SFM  ->B  PLC  ->E  CFP1
	SAP  ->S  PLC  ->S  SFM  ->B  PLC  ->E  CFP2
	SAP  ->S  FAULTMNGR  ->S  PLC  ->E  CFP1
	SAP  ->S  FAULTMNGR  ->S  PLC  ->E  CFP2
	SAP  ->S  FAULTMNGR  ->S  OP  ->S  FAULTMNGR  ->S  SO3
	SAP  ->S  FAULTMNGR  ->S  OP  ->S  FAULTMNGR  ->S  SAP
	SAP  ->S  FAULTMNGR  ->S  OP  ->S  FAULTMNGR  ->S  PLC
	SAP  ->E  SO3  ->S  FAULTMNGR  ->S  PLC  ->E  CFP1
	SAP  ->E  SO3  ->S  FAULTMNGR  ->S  PLC  ->E  CFP2
	SAP  ->E  SO3  ->S  FAULTMNGR  ->S  OP  ->S  FAULTMNGR  ->S  SO3
	SAP  ->E  SO3  ->S  FAULTMNGR  ->S  OP  ->S  FAULTMNGR  ->S  SAP
	SAP  ->E  SO3  ->S  FAULTMNGR  ->S  OP  ->S  FAULTMNGR  ->S  PLC
	SAP  ->E  SO3  ->B  PLC  ->E  CFP1
	SAP  ->E  SO3  ->B  PLC  ->E  CFP2
	SAP  ->E  SFM  ->B  PLC  ->E  CFP1
	SAP  ->E  SFM  ->B  PLC  ->E  CFP2



CFP1 ~>+ CFP2: False
------------------------
ALL PATHS: CFP1 ~>+ CFP2
------------------------
------------------------
IMPLICIT PATHS: CFP1 ~>+ CFP2
------------------------

CFP1 ~>+ FAULTMNGR: False
------------------------
ALL PATHS: CFP1 ~>+ FAULTMNGR
------------------------
------------------------
IMPLICIT PATHS: CFP1 ~>+ FAULTMNGR
------------------------

CFP1 ~>+ OP: False
------------------------
ALL PATHS: CFP1 ~>+ OP
------------------------
------------------------
IMPLICIT PATHS: CFP1 ~>+ OP
------------------------

CFP1 ~>+ PLC: False
------------------------
ALL PATHS: CFP1 ~>+ PLC
------------------------
------------------------
IMPLICIT PATHS: CFP1 ~>+ PLC
------------------------

CFP1 ~>+ SAP: False
------------------------
ALL PATHS: CFP1 ~>+ SAP
------------------------
------------------------
IMPLICIT PATHS: CFP1 ~>+ SAP
------------------------

CFP1 ~>+ SFM: False
------------------------
ALL PATHS: CFP1 ~>+ SFM
------------------------
------------------------
IMPLICIT PATHS: CFP1 ~>+ SFM
------------------------

CFP1 ~>+ SO3: False
------------------------
ALL PATHS: CFP1 ~>+ SO3
------------------------
------------------------
IMPLICIT PATHS: CFP1 ~>+ SO3
------------------------

CFP2 ~>+ CFP1: False
------------------------
ALL PATHS: CFP2 ~>+ CFP1
------------------------
------------------------
IMPLICIT PATHS: CFP2 ~>+ CFP1
------------------------

CFP2 ~>+ FAULTMNGR: False
------------------------
ALL PATHS: CFP2 ~>+ FAULTMNGR
------------------------
------------------------
IMPLICIT PATHS: CFP2 ~>+ FAULTMNGR
------------------------

CFP2 ~>+ OP: False
------------------------
ALL PATHS: CFP2 ~>+ OP
------------------------
------------------------
IMPLICIT PATHS: CFP2 ~>+ OP
------------------------

CFP2 ~>+ PLC: False
------------------------
ALL PATHS: CFP2 ~>+ PLC
------------------------
------------------------
IMPLICIT PATHS: CFP2 ~>+ PLC
------------------------

CFP2 ~>+ SAP: False
------------------------
ALL PATHS: CFP2 ~>+ SAP
------------------------
------------------------
IMPLICIT PATHS: CFP2 ~>+ SAP
------------------------

CFP2 ~>+ SFM: False
------------------------
ALL PATHS: CFP2 ~>+ SFM
------------------------
------------------------
IMPLICIT PATHS: CFP2 ~>+ SFM
------------------------

CFP2 ~>+ SO3: False
------------------------
ALL PATHS: CFP2 ~>+ SO3
------------------------
------------------------
IMPLICIT PATHS: CFP2 ~>+ SO3
------------------------

FAULTMNGR ~>+ CFP1: True
------------------------
ALL PATHS: FAULTMNGR ~>+ CFP1
------------------------
	SEVERITY = 0.00		FAULTMNGR  ->S  PLC  ->E  CFP1
	SEVERITY = 0.67		FAULTMNGR  ->S  OP  ->S  PLC  ->E  CFP1
	SEVERITY = 0.67		FAULTMNGR  ->S  SAP  ->S  PLC  ->E  CFP1
	SEVERITY = 0.67		FAULTMNGR  ->S  OP  ->S  SAP  ->S  PLC  ->E  CFP1
	SEVERITY = 0.67		FAULTMNGR  ->S  SO3  ->S  SAP  ->S  PLC  ->E  CFP1
	SEVERITY = 0.67		FAULTMNGR  ->S  OP  ->S  SO3  ->S  SAP  ->S  PLC  ->E  CFP1
	SEVERITY = 0.00		FAULTMNGR  ->S  SAP  ->E  SFM  ->E  PLC  ->E  CFP1
	SEVERITY = 0.00		FAULTMNGR  ->S  OP  ->S  SAP  ->E  SFM  ->E  PLC  ->E  CFP1
	SEVERITY = 0.00		FAULTMNGR  ->S  SO3  ->S  SAP  ->E  SFM  ->E  PLC  ->E  CFP1
	SEVERITY = 0.00		FAULTMNGR  ->S  OP  ->S  SO3  ->S  SAP  ->E  SFM  ->E  PLC  ->E  CFP1
	SEVERITY = 0.33		FAULTMNGR  ->S  SO3  ->E  PLC  ->E  CFP1
	SEVERITY = 0.33		FAULTMNGR  ->S  OP  ->S  SO3  ->E  PLC  ->E  CFP1
	SEVERITY = 0.00		FAULTMNGR  ->S  SAP  ->E  SO3  ->E  PLC  ->E  CFP1
	SEVERITY = 0.00		FAULTMNGR  ->S  OP  ->S  SAP  ->E  SO3  ->E  PLC  ->E  CFP1
	SEVERITY = 0.33		FAULTMNGR  ->S  SAP  ->S  SO3  ->E  PLC  ->E  CFP1
	SEVERITY = 0.33		FAULTMNGR  ->S  OP  ->S  SAP  ->S  SO3  ->E  PLC  ->E  CFP1
	SEVERITY = 0.00		FAULTMNGR  ->S  SAP  ->E  SFM  ->S  PLC  ->E  CFP1
	SEVERITY = 0.00		FAULTMNGR  ->S  OP  ->S  SAP  ->E  SFM  ->S  PLC  ->E  CFP1
	SEVERITY = 0.00		FAULTMNGR  ->S  SO3  ->S  SAP  ->E  SFM  ->S  PLC  ->E  CFP1
	SEVERITY = 0.00		FAULTMNGR  ->S  OP  ->S  SO3  ->S  SAP  ->E  SFM  ->S  PLC  ->E  CFP1
	SEVERITY = 0.33		FAULTMNGR  ->S  SO3  ->S  PLC  ->E  CFP1
	SEVERITY = 0.33		FAULTMNGR  ->S  OP  ->S  SO3  ->S  PLC  ->E  CFP1
	SEVERITY = 0.00		FAULTMNGR  ->S  SAP  ->E  SO3  ->S  PLC  ->E  CFP1
	SEVERITY = 0.00		FAULTMNGR  ->S  OP  ->S  SAP  ->E  SO3  ->S  PLC  ->E  CFP1
	SEVERITY = 0.33		FAULTMNGR  ->S  SAP  ->S  SO3  ->S  PLC  ->E  CFP1
	SEVERITY = 0.33		FAULTMNGR  ->S  OP  ->S  SAP  ->S  SO3  ->S  PLC  ->E  CFP1
------------------------
IMPLICIT PATHS: FAULTMNGR ~>+ CFP1
------------------------
	FAULTMNGR  ->S  OP  ->S  PLC  ->E  CFP1
	FAULTMNGR  ->S  SAP  ->S  PLC  ->E  CFP1
	FAULTMNGR  ->S  OP  ->S  SAP  ->S  PLC  ->E  CFP1
	FAULTMNGR  ->S  SO3  ->S  SAP  ->S  PLC  ->E  CFP1
	FAULTMNGR  ->S  OP  ->S  SO3  ->S  SAP  ->S  PLC  ->E  CFP1
	FAULTMNGR  ->S  SO3  ->E  PLC  ->E  CFP1
	FAULTMNGR  ->S  OP  ->S  SO3  ->E  PLC  ->E  CFP1
	FAULTMNGR  ->S  SAP  ->S  SO3  ->E  PLC  ->E  CFP1
	FAULTMNGR  ->S  OP  ->S  SAP  ->S  SO3  ->E  PLC  ->E  CFP1
	FAULTMNGR  ->S  SO3  ->S  PLC  ->E  CFP1
	FAULTMNGR  ->S  OP  ->S  SO3  ->S  PLC  ->E  CFP1
	FAULTMNGR  ->S  SAP  ->S  SO3  ->S  PLC  ->E  CFP1
	FAULTMNGR  ->S  OP  ->S  SAP  ->S  SO3  ->S  PLC  ->E  CFP1

FAULTMNGR ~>+ CFP2: True
------------------------
ALL PATHS: FAULTMNGR ~>+ CFP2
------------------------
	SEVERITY = 0.00		FAULTMNGR  ->S  PLC  ->E  CFP2
	SEVERITY = 0.67		FAULTMNGR  ->S  OP  ->S  PLC  ->E  CFP2
	SEVERITY = 0.67		FAULTMNGR  ->S  SAP  ->S  PLC  ->E  CFP2
	SEVERITY = 0.67		FAULTMNGR  ->S  OP  ->S  SAP  ->S  PLC  ->E  CFP2
	SEVERITY = 0.67		FAULTMNGR  ->S  SO3  ->S  SAP  ->S  PLC  ->E  CFP2
	SEVERITY = 0.67		FAULTMNGR  ->S  OP  ->S  SO3  ->S  SAP  ->S  PLC  ->E  CFP2
	SEVERITY = 0.00		FAULTMNGR  ->S  SAP  ->E  SFM  ->E  PLC  ->E  CFP2
	SEVERITY = 0.00		FAULTMNGR  ->S  OP  ->S  SAP  ->E  SFM  ->E  PLC  ->E  CFP2
	SEVERITY = 0.00		FAULTMNGR  ->S  SO3  ->S  SAP  ->E  SFM  ->E  PLC  ->E  CFP2
	SEVERITY = 0.00		FAULTMNGR  ->S  OP  ->S  SO3  ->S  SAP  ->E  SFM  ->E  PLC  ->E  CFP2
	SEVERITY = 0.33		FAULTMNGR  ->S  SO3  ->E  PLC  ->E  CFP2
	SEVERITY = 0.33		FAULTMNGR  ->S  OP  ->S  SO3  ->E  PLC  ->E  CFP2
	SEVERITY = 0.00		FAULTMNGR  ->S  SAP  ->E  SO3  ->E  PLC  ->E  CFP2
	SEVERITY = 0.00		FAULTMNGR  ->S  OP  ->S  SAP  ->E  SO3  ->E  PLC  ->E  CFP2
	SEVERITY = 0.33		FAULTMNGR  ->S  SAP  ->S  SO3  ->E  PLC  ->E  CFP2
	SEVERITY = 0.33		FAULTMNGR  ->S  OP  ->S  SAP  ->S  SO3  ->E  PLC  ->E  CFP2
	SEVERITY = 0.00		FAULTMNGR  ->S  SAP  ->E  SFM  ->S  PLC  ->E  CFP2
	SEVERITY = 0.00		FAULTMNGR  ->S  OP  ->S  SAP  ->E  SFM  ->S  PLC  ->E  CFP2
	SEVERITY = 0.00		FAULTMNGR  ->S  SO3  ->S  SAP  ->E  SFM  ->S  PLC  ->E  CFP2
	SEVERITY = 0.00		FAULTMNGR  ->S  OP  ->S  SO3  ->S  SAP  ->E  SFM  ->S  PLC  ->E  CFP2
	SEVERITY = 0.33		FAULTMNGR  ->S  SO3  ->S  PLC  ->E  CFP2
	SEVERITY = 0.33		FAULTMNGR  ->S  OP  ->S  SO3  ->S  PLC  ->E  CFP2
	SEVERITY = 0.00		FAULTMNGR  ->S  SAP  ->E  SO3  ->S  PLC  ->E  CFP2
	SEVERITY = 0.00		FAULTMNGR  ->S  OP  ->S  SAP  ->E  SO3  ->S  PLC  ->E  CFP2
	SEVERITY = 0.33		FAULTMNGR  ->S  SAP  ->S  SO3  ->S  PLC  ->E  CFP2
	SEVERITY = 0.33		FAULTMNGR  ->S  OP  ->S  SAP  ->S  SO3  ->S  PLC  ->E  CFP2
------------------------
IMPLICIT PATHS: FAULTMNGR ~>+ CFP2
------------------------
	FAULTMNGR  ->S  OP  ->S  PLC  ->E  CFP2
	FAULTMNGR  ->S  SAP  ->S  PLC  ->E  CFP2
	FAULTMNGR  ->S  OP  ->S  SAP  ->S  PLC  ->E  CFP2
	FAULTMNGR  ->S  SO3  ->S  SAP  ->S  PLC  ->E  CFP2
	FAULTMNGR  ->S  OP  ->S  SO3  ->S  SAP  ->S  PLC  ->E  CFP2
	FAULTMNGR  ->S  SO3  ->E  PLC  ->E  CFP2
	FAULTMNGR  ->S  OP  ->S  SO3  ->E  PLC  ->E  CFP2
	FAULTMNGR  ->S  SAP  ->S  SO3  ->E  PLC  ->E  CFP2
	FAULTMNGR  ->S  OP  ->S  SAP  ->S  SO3  ->E  PLC  ->E  CFP2
	FAULTMNGR  ->S  SO3  ->S  PLC  ->E  CFP2
	FAULTMNGR  ->S  OP  ->S  SO3  ->S  PLC  ->E  CFP2
	FAULTMNGR  ->S  SAP  ->S  SO3  ->S  PLC  ->E  CFP2
	FAULTMNGR  ->S  OP  ->S  SAP  ->S  SO3  ->S  PLC  ->E  CFP2

FAULTMNGR ~>+ OP: True
------------------------
ALL PATHS: FAULTMNGR ~>+ OP
------------------------
	SEVERITY = 0.00		FAULTMNGR  ->S  OP
------------------------
IMPLICIT PATHS: FAULTMNGR ~>+ OP
------------------------

FAULTMNGR ~>+ PLC: True
------------------------
ALL PATHS: FAULTMNGR ~>+ PLC
------------------------
	SEVERITY = 0.00		FAULTMNGR  ->S  PLC
	SEVERITY = 0.50		FAULTMNGR  ->S  OP  ->S  PLC
	SEVERITY = 0.50		FAULTMNGR  ->S  SAP  ->S  PLC
	SEVERITY = 0.67		FAULTMNGR  ->S  OP  ->S  SAP  ->S  PLC
	SEVERITY = 0.67		FAULTMNGR  ->S  SO3  ->S  SAP  ->S  PLC
	SEVERITY = 0.75		FAULTMNGR  ->S  OP  ->S  SO3  ->S  SAP  ->S  PLC
	SEVERITY = 0.33		FAULTMNGR  ->S  SAP  ->E  SFM  ->E  PLC
	SEVERITY = 0.33		FAULTMNGR  ->S  OP  ->S  SAP  ->E  SFM  ->E  PLC
	SEVERITY = 0.33		FAULTMNGR  ->S  SO3  ->S  SAP  ->E  SFM  ->E  PLC
	SEVERITY = 0.33		FAULTMNGR  ->S  OP  ->S  SO3  ->S  SAP  ->E  SFM  ->E  PLC
	SEVERITY = 0.50		FAULTMNGR  ->S  SO3  ->E  PLC
	SEVERITY = 0.67		FAULTMNGR  ->S  OP  ->S  SO3  ->E  PLC
	SEVERITY = 0.33		FAULTMNGR  ->S  SAP  ->E  SO3  ->E  PLC
	SEVERITY = 0.33		FAULTMNGR  ->S  OP  ->S  SAP  ->E  SO3  ->E  PLC
	SEVERITY = 0.67		FAULTMNGR  ->S  SAP  ->S  SO3  ->E  PLC
	SEVERITY = 0.67		FAULTMNGR  ->S  OP  ->S  SAP  ->S  SO3  ->E  PLC
	SEVERITY = 0.33		FAULTMNGR  ->S  SAP  ->E  SFM  ->S  PLC
	SEVERITY = 0.33		FAULTMNGR  ->S  OP  ->S  SAP  ->E  SFM  ->S  PLC
	SEVERITY = 0.33		FAULTMNGR  ->S  SO3  ->S  SAP  ->E  SFM  ->S  PLC
	SEVERITY = 0.33		FAULTMNGR  ->S  OP  ->S  SO3  ->S  SAP  ->E  SFM  ->S  PLC
	SEVERITY = 0.50		FAULTMNGR  ->S  SO3  ->S  PLC
	SEVERITY = 0.67		FAULTMNGR  ->S  OP  ->S  SO3  ->S  PLC
	SEVERITY = 0.33		FAULTMNGR  ->S  SAP  ->E  SO3  ->S  PLC
	SEVERITY = 0.33		FAULTMNGR  ->S  OP  ->S  SAP  ->E  SO3  ->S  PLC
	SEVERITY = 0.67		FAULTMNGR  ->S  SAP  ->S  SO3  ->S  PLC
	SEVERITY = 0.67		FAULTMNGR  ->S  OP  ->S  SAP  ->S  SO3  ->S  PLC
------------------------
IMPLICIT PATHS: FAULTMNGR ~>+ PLC
------------------------
	FAULTMNGR  ->S  OP  ->S  PLC
	FAULTMNGR  ->S  SAP  ->S  PLC
	FAULTMNGR  ->S  OP  ->S  SAP  ->S  PLC
	FAULTMNGR  ->S  SO3  ->S  SAP  ->S  PLC
	FAULTMNGR  ->S  OP  ->S  SO3  ->S  SAP  ->S  PLC
	FAULTMNGR  ->S  SAP  ->E  SFM  ->E  PLC
	FAULTMNGR  ->S  OP  ->S  SAP  ->E  SFM  ->E  PLC
	FAULTMNGR  ->S  SO3  ->S  SAP  ->E  SFM  ->E  PLC
	FAULTMNGR  ->S  OP  ->S  SO3  ->S  SAP  ->E  SFM  ->E  PLC
	FAULTMNGR  ->S  SO3  ->E  PLC
	FAULTMNGR  ->S  OP  ->S  SO3  ->E  PLC
	FAULTMNGR  ->S  SAP  ->E  SO3  ->E  PLC
	FAULTMNGR  ->S  OP  ->S  SAP  ->E  SO3  ->E  PLC
	FAULTMNGR  ->S  SAP  ->S  SO3  ->E  PLC
	FAULTMNGR  ->S  OP  ->S  SAP  ->S  SO3  ->E  PLC
	FAULTMNGR  ->S  SAP  ->E  SFM  ->S  PLC
	FAULTMNGR  ->S  OP  ->S  SAP  ->E  SFM  ->S  PLC
	FAULTMNGR  ->S  SO3  ->S  SAP  ->E  SFM  ->S  PLC
	FAULTMNGR  ->S  OP  ->S  SO3  ->S  SAP  ->E  SFM  ->S  PLC
	FAULTMNGR  ->S  SO3  ->S  PLC
	FAULTMNGR  ->S  OP  ->S  SO3  ->S  PLC
	FAULTMNGR  ->S  SAP  ->E  SO3  ->S  PLC
	FAULTMNGR  ->S  OP  ->S  SAP  ->E  SO3  ->S  PLC
	FAULTMNGR  ->S  SAP  ->S  SO3  ->S  PLC
	FAULTMNGR  ->S  OP  ->S  SAP  ->S  SO3  ->S  PLC

FAULTMNGR ~>+ SAP: True
------------------------
ALL PATHS: FAULTMNGR ~>+ SAP
------------------------
	SEVERITY = 0.00		FAULTMNGR  ->S  SAP
	SEVERITY = 0.50		FAULTMNGR  ->S  OP  ->S  SAP
	SEVERITY = 0.50		FAULTMNGR  ->S  SO3  ->S  SAP
	SEVERITY = 0.67		FAULTMNGR  ->S  OP  ->S  SO3  ->S  SAP
------------------------
IMPLICIT PATHS: FAULTMNGR ~>+ SAP
------------------------
	FAULTMNGR  ->S  OP  ->S  SAP
	FAULTMNGR  ->S  SO3  ->S  SAP
	FAULTMNGR  ->S  OP  ->S  SO3  ->S  SAP

FAULTMNGR ~>+ SFM: True
------------------------
ALL PATHS: FAULTMNGR ~>+ SFM
------------------------
	SEVERITY = 0.50		FAULTMNGR  ->S  SAP  ->E  SFM
	SEVERITY = 0.67		FAULTMNGR  ->S  OP  ->S  SAP  ->E  SFM
	SEVERITY = 0.67		FAULTMNGR  ->S  SO3  ->S  SAP  ->E  SFM
	SEVERITY = 0.67		FAULTMNGR  ->S  OP  ->S  SO3  ->S  SAP  ->E  SFM
------------------------
IMPLICIT PATHS: FAULTMNGR ~>+ SFM
------------------------
	FAULTMNGR  ->S  SAP  ->E  SFM
	FAULTMNGR  ->S  OP  ->S  SAP  ->E  SFM
	FAULTMNGR  ->S  SO3  ->S  SAP  ->E  SFM
	FAULTMNGR  ->S  OP  ->S  SO3  ->S  SAP  ->E  SFM

FAULTMNGR ~>+ SO3: True
------------------------
ALL PATHS: FAULTMNGR ~>+ SO3
------------------------
	SEVERITY = 0.00		FAULTMNGR  ->S  SO3
	SEVERITY = 0.50		FAULTMNGR  ->S  OP  ->S  SO3
	SEVERITY = 0.50		FAULTMNGR  ->S  SAP  ->E  SO3
	SEVERITY = 0.67		FAULTMNGR  ->S  OP  ->S  SAP  ->E  SO3
	SEVERITY = 0.50		FAULTMNGR  ->S  SAP  ->S  SO3
	SEVERITY = 0.67		FAULTMNGR  ->S  OP  ->S  SAP  ->S  SO3
------------------------
IMPLICIT PATHS: FAULTMNGR ~>+ SO3
------------------------
	FAULTMNGR  ->S  OP  ->S  SO3
	FAULTMNGR  ->S  SAP  ->E  SO3
	FAULTMNGR  ->S  OP  ->S  SAP  ->E  SO3
	FAULTMNGR  ->S  SAP  ->S  SO3
	FAULTMNGR  ->S  OP  ->S  SAP  ->S  SO3

OP ~>+ CFP1: True
------------------------
ALL PATHS: OP ~>+ CFP1
------------------------
	SEVERITY = 0.33		OP  ->S  FAULTMNGR  ->S  PLC  ->E  CFP1
	SEVERITY = 0.00		OP  ->S  SAP  ->S  FAULTMNGR  ->S  PLC  ->E  CFP1
	SEVERITY = 0.00		OP  ->S  SO3  ->S  SAP  ->S  FAULTMNGR  ->S  PLC  ->E  CFP1
	SEVERITY = 0.25		OP  ->S  SO3  ->S  FAULTMNGR  ->S  PLC  ->E  CFP1
	SEVERITY = 0.00		OP  ->S  SAP  ->E  SO3  ->S  FAULTMNGR  ->S  PLC  ->E  CFP1
	SEVERITY = 0.25		OP  ->S  SAP  ->S  SO3  ->S  FAULTMNGR  ->S  PLC  ->E  CFP1
	SEVERITY = 0.50		OP  ->S  PLC  ->E  CFP1
	SEVERITY = 0.50		OP  ->S  FAULTMNGR  ->S  SAP  ->S  PLC  ->E  CFP1
	SEVERITY = 0.67		OP  ->S  SO3  ->S  FAULTMNGR  ->S  SAP  ->S  PLC  ->E  CFP1
	SEVERITY = 0.67		OP  ->S  SAP  ->S  PLC  ->E  CFP1
	SEVERITY = 0.50		OP  ->S  FAULTMNGR  ->S  SO3  ->S  SAP  ->S  PLC  ->E  CFP1
	SEVERITY = 0.67		OP  ->S  SO3  ->S  SAP  ->S  PLC  ->E  CFP1
	SEVERITY = 0.00		OP  ->S  FAULTMNGR  ->S  SAP  ->E  SFM  ->E  PLC  ->E  CFP1
	SEVERITY = 0.00		OP  ->S  SO3  ->S  FAULTMNGR  ->S  SAP  ->E  SFM  ->E  PLC  ->E  CFP1
	SEVERITY = 0.00		OP  ->S  SAP  ->E  SFM  ->E  PLC  ->E  CFP1
	SEVERITY = 0.00		OP  ->S  FAULTMNGR  ->S  SO3  ->S  SAP  ->E  SFM  ->E  PLC  ->E  CFP1
	SEVERITY = 0.00		OP  ->S  SO3  ->S  SAP  ->E  SFM  ->E  PLC  ->E  CFP1
	SEVERITY = 0.33		OP  ->S  FAULTMNGR  ->S  SO3  ->E  PLC  ->E  CFP1
	SEVERITY = 0.33		OP  ->S  SAP  ->S  FAULTMNGR  ->S  SO3  ->E  PLC  ->E  CFP1
	SEVERITY = 0.33		OP  ->S  SO3  ->E  PLC  ->E  CFP1
	SEVERITY = 0.00		OP  ->S  FAULTMNGR  ->S  SAP  ->E  SO3  ->E  PLC  ->E  CFP1
	SEVERITY = 0.00		OP  ->S  SAP  ->E  SO3  ->E  PLC  ->E  CFP1
	SEVERITY = 0.33		OP  ->S  FAULTMNGR  ->S  SAP  ->S  SO3  ->E  PLC  ->E  CFP1
	SEVERITY = 0.33		OP  ->S  SAP  ->S  SO3  ->E  PLC  ->E  CFP1
	SEVERITY = 0.00		OP  ->S  FAULTMNGR  ->S  SAP  ->E  SFM  ->S  PLC  ->E  CFP1
	SEVERITY = 0.00		OP  ->S  SO3  ->S  FAULTMNGR  ->S  SAP  ->E  SFM  ->S  PLC  ->E  CFP1
	SEVERITY = 0.00		OP  ->S  SAP  ->E  SFM  ->S  PLC  ->E  CFP1
	SEVERITY = 0.00		OP  ->S  FAULTMNGR  ->S  SO3  ->S  SAP  ->E  SFM  ->S  PLC  ->E  CFP1
	SEVERITY = 0.00		OP  ->S  SO3  ->S  SAP  ->E  SFM  ->S  PLC  ->E  CFP1
	SEVERITY = 0.33		OP  ->S  FAULTMNGR  ->S  SO3  ->S  PLC  ->E  CFP1
	SEVERITY = 0.33		OP  ->S  SAP  ->S  FAULTMNGR  ->S  SO3  ->S  PLC  ->E  CFP1
	SEVERITY = 0.33		OP  ->S  SO3  ->S  PLC  ->E  CFP1
	SEVERITY = 0.00		OP  ->S  FAULTMNGR  ->S  SAP  ->E  SO3  ->S  PLC  ->E  CFP1
	SEVERITY = 0.00		OP  ->S  SAP  ->E  SO3  ->S  PLC  ->E  CFP1
	SEVERITY = 0.33		OP  ->S  FAULTMNGR  ->S  SAP  ->S  SO3  ->S  PLC  ->E  CFP1
	SEVERITY = 0.33		OP  ->S  SAP  ->S  SO3  ->S  PLC  ->E  CFP1
------------------------
IMPLICIT PATHS: OP ~>+ CFP1
------------------------
	OP  ->S  FAULTMNGR  ->S  PLC  ->E  CFP1
	OP  ->S  SO3  ->S  FAULTMNGR  ->S  PLC  ->E  CFP1
	OP  ->S  SAP  ->S  SO3  ->S  FAULTMNGR  ->S  PLC  ->E  CFP1
	OP  ->S  PLC  ->E  CFP1
	OP  ->S  FAULTMNGR  ->S  SAP  ->S  PLC  ->E  CFP1
	OP  ->S  SO3  ->S  FAULTMNGR  ->S  SAP  ->S  PLC  ->E  CFP1
	OP  ->S  SAP  ->S  PLC  ->E  CFP1
	OP  ->S  FAULTMNGR  ->S  SO3  ->S  SAP  ->S  PLC  ->E  CFP1
	OP  ->S  SO3  ->S  SAP  ->S  PLC  ->E  CFP1
	OP  ->S  FAULTMNGR  ->S  SO3  ->E  PLC  ->E  CFP1
	OP  ->S  SAP  ->S  FAULTMNGR  ->S  SO3  ->E  PLC  ->E  CFP1
	OP  ->S  SO3  ->E  PLC  ->E  CFP1
	OP  ->S  FAULTMNGR  ->S  SAP  ->S  SO3  ->E  PLC  ->E  CFP1
	OP  ->S  SAP  ->S  SO3  ->E  PLC  ->E  CFP1
	OP  ->S  FAULTMNGR  ->S  SO3  ->S  PLC  ->E  CFP1
	OP  ->S  SAP  ->S  FAULTMNGR  ->S  SO3  ->S  PLC  ->E  CFP1
	OP  ->S  SO3  ->S  PLC  ->E  CFP1
	OP  ->S  FAULTMNGR  ->S  SAP  ->S  SO3  ->S  PLC  ->E  CFP1
	OP  ->S  SAP  ->S  SO3  ->S  PLC  ->E  CFP1

OP ~>+ CFP2: True
------------------------
ALL PATHS: OP ~>+ CFP2
------------------------
	SEVERITY = 0.33		OP  ->S  FAULTMNGR  ->S  PLC  ->E  CFP2
	SEVERITY = 0.00		OP  ->S  SAP  ->S  FAULTMNGR  ->S  PLC  ->E  CFP2
	SEVERITY = 0.00		OP  ->S  SO3  ->S  SAP  ->S  FAULTMNGR  ->S  PLC  ->E  CFP2
	SEVERITY = 0.25		OP  ->S  SO3  ->S  FAULTMNGR  ->S  PLC  ->E  CFP2
	SEVERITY = 0.00		OP  ->S  SAP  ->E  SO3  ->S  FAULTMNGR  ->S  PLC  ->E  CFP2
	SEVERITY = 0.25		OP  ->S  SAP  ->S  SO3  ->S  FAULTMNGR  ->S  PLC  ->E  CFP2
	SEVERITY = 0.50		OP  ->S  PLC  ->E  CFP2
	SEVERITY = 0.50		OP  ->S  FAULTMNGR  ->S  SAP  ->S  PLC  ->E  CFP2
	SEVERITY = 0.67		OP  ->S  SO3  ->S  FAULTMNGR  ->S  SAP  ->S  PLC  ->E  CFP2
	SEVERITY = 0.67		OP  ->S  SAP  ->S  PLC  ->E  CFP2
	SEVERITY = 0.50		OP  ->S  FAULTMNGR  ->S  SO3  ->S  SAP  ->S  PLC  ->E  CFP2
	SEVERITY = 0.67		OP  ->S  SO3  ->S  SAP  ->S  PLC  ->E  CFP2
	SEVERITY = 0.00		OP  ->S  FAULTMNGR  ->S  SAP  ->E  SFM  ->E  PLC  ->E  CFP2
	SEVERITY = 0.00		OP  ->S  SO3  ->S  FAULTMNGR  ->S  SAP  ->E  SFM  ->E  PLC  ->E  CFP2
	SEVERITY = 0.00		OP  ->S  SAP  ->E  SFM  ->E  PLC  ->E  CFP2
	SEVERITY = 0.00		OP  ->S  FAULTMNGR  ->S  SO3  ->S  SAP  ->E  SFM  ->E  PLC  ->E  CFP2
	SEVERITY = 0.00		OP  ->S  SO3  ->S  SAP  ->E  SFM  ->E  PLC  ->E  CFP2
	SEVERITY = 0.33		OP  ->S  FAULTMNGR  ->S  SO3  ->E  PLC  ->E  CFP2
	SEVERITY = 0.33		OP  ->S  SAP  ->S  FAULTMNGR  ->S  SO3  ->E  PLC  ->E  CFP2
	SEVERITY = 0.33		OP  ->S  SO3  ->E  PLC  ->E  CFP2
	SEVERITY = 0.00		OP  ->S  FAULTMNGR  ->S  SAP  ->E  SO3  ->E  PLC  ->E  CFP2
	SEVERITY = 0.00		OP  ->S  SAP  ->E  SO3  ->E  PLC  ->E  CFP2
	SEVERITY = 0.33		OP  ->S  FAULTMNGR  ->S  SAP  ->S  SO3  ->E  PLC  ->E  CFP2
	SEVERITY = 0.33		OP  ->S  SAP  ->S  SO3  ->E  PLC  ->E  CFP2
	SEVERITY = 0.00		OP  ->S  FAULTMNGR  ->S  SAP  ->E  SFM  ->S  PLC  ->E  CFP2
	SEVERITY = 0.00		OP  ->S  SO3  ->S  FAULTMNGR  ->S  SAP  ->E  SFM  ->S  PLC  ->E  CFP2
	SEVERITY = 0.00		OP  ->S  SAP  ->E  SFM  ->S  PLC  ->E  CFP2
	SEVERITY = 0.00		OP  ->S  FAULTMNGR  ->S  SO3  ->S  SAP  ->E  SFM  ->S  PLC  ->E  CFP2
	SEVERITY = 0.00		OP  ->S  SO3  ->S  SAP  ->E  SFM  ->S  PLC  ->E  CFP2
	SEVERITY = 0.33		OP  ->S  FAULTMNGR  ->S  SO3  ->S  PLC  ->E  CFP2
	SEVERITY = 0.33		OP  ->S  SAP  ->S  FAULTMNGR  ->S  SO3  ->S  PLC  ->E  CFP2
	SEVERITY = 0.33		OP  ->S  SO3  ->S  PLC  ->E  CFP2
	SEVERITY = 0.00		OP  ->S  FAULTMNGR  ->S  SAP  ->E  SO3  ->S  PLC  ->E  CFP2
	SEVERITY = 0.00		OP  ->S  SAP  ->E  SO3  ->S  PLC  ->E  CFP2
	SEVERITY = 0.33		OP  ->S  FAULTMNGR  ->S  SAP  ->S  SO3  ->S  PLC  ->E  CFP2
	SEVERITY = 0.33		OP  ->S  SAP  ->S  SO3  ->S  PLC  ->E  CFP2
------------------------
IMPLICIT PATHS: OP ~>+ CFP2
------------------------
	OP  ->S  FAULTMNGR  ->S  PLC  ->E  CFP2
	OP  ->S  SO3  ->S  FAULTMNGR  ->S  PLC  ->E  CFP2
	OP  ->S  SAP  ->S  SO3  ->S  FAULTMNGR  ->S  PLC  ->E  CFP2
	OP  ->S  PLC  ->E  CFP2
	OP  ->S  FAULTMNGR  ->S  SAP  ->S  PLC  ->E  CFP2
	OP  ->S  SO3  ->S  FAULTMNGR  ->S  SAP  ->S  PLC  ->E  CFP2
	OP  ->S  SAP  ->S  PLC  ->E  CFP2
	OP  ->S  FAULTMNGR  ->S  SO3  ->S  SAP  ->S  PLC  ->E  CFP2
	OP  ->S  SO3  ->S  SAP  ->S  PLC  ->E  CFP2
	OP  ->S  FAULTMNGR  ->S  SO3  ->E  PLC  ->E  CFP2
	OP  ->S  SAP  ->S  FAULTMNGR  ->S  SO3  ->E  PLC  ->E  CFP2
	OP  ->S  SO3  ->E  PLC  ->E  CFP2
	OP  ->S  FAULTMNGR  ->S  SAP  ->S  SO3  ->E  PLC  ->E  CFP2
	OP  ->S  SAP  ->S  SO3  ->E  PLC  ->E  CFP2
	OP  ->S  FAULTMNGR  ->S  SO3  ->S  PLC  ->E  CFP2
	OP  ->S  SAP  ->S  FAULTMNGR  ->S  SO3  ->S  PLC  ->E  CFP2
	OP  ->S  SO3  ->S  PLC  ->E  CFP2
	OP  ->S  FAULTMNGR  ->S  SAP  ->S  SO3  ->S  PLC  ->E  CFP2
	OP  ->S  SAP  ->S  SO3  ->S  PLC  ->E  CFP2

OP ~>+ FAULTMNGR: True
------------------------
ALL PATHS: OP ~>+ FAULTMNGR
------------------------
	SEVERITY = 0.00		OP  ->S  FAULTMNGR
	SEVERITY = 0.50		OP  ->S  SAP  ->S  FAULTMNGR
	SEVERITY = 0.67		OP  ->S  SO3  ->S  SAP  ->S  FAULTMNGR
	SEVERITY = 0.50		OP  ->S  SO3  ->S  FAULTMNGR
	SEVERITY = 0.33		OP  ->S  SAP  ->E  SO3  ->S  FAULTMNGR
	SEVERITY = 0.67		OP  ->S  SAP  ->S  SO3  ->S  FAULTMNGR
------------------------
IMPLICIT PATHS: OP ~>+ FAULTMNGR
------------------------
	OP  ->S  SAP  ->S  FAULTMNGR
	OP  ->S  SO3  ->S  SAP  ->S  FAULTMNGR
	OP  ->S  SO3  ->S  FAULTMNGR
	OP  ->S  SAP  ->E  SO3  ->S  FAULTMNGR
	OP  ->S  SAP  ->S  SO3  ->S  FAULTMNGR

OP ~>+ PLC: True
------------------------
ALL PATHS: OP ~>+ PLC
------------------------
	SEVERITY = 0.00		OP  ->S  FAULTMNGR  ->S  PLC
	SEVERITY = 0.33		OP  ->S  SAP  ->S  FAULTMNGR  ->S  PLC
	SEVERITY = 0.33		OP  ->S  SO3  ->S  SAP  ->S  FAULTMNGR  ->S  PLC
	SEVERITY = 0.33		OP  ->S  SO3  ->S  FAULTMNGR  ->S  PLC
	SEVERITY = 0.25		OP  ->S  SAP  ->E  SO3  ->S  FAULTMNGR  ->S  PLC
	SEVERITY = 0.50		OP  ->S  SAP  ->S  SO3  ->S  FAULTMNGR  ->S  PLC
	SEVERITY = 1.00		OP  ->S  PLC
	SEVERITY = 0.33		OP  ->S  FAULTMNGR  ->S  SAP  ->S  PLC
	SEVERITY = 0.75		OP  ->S  SO3  ->S  FAULTMNGR  ->S  SAP  ->S  PLC
	SEVERITY = 0.50		OP  ->S  SAP  ->S  PLC
	SEVERITY = 0.50		OP  ->S  FAULTMNGR  ->S  SO3  ->S  SAP  ->S  PLC
	SEVERITY = 0.67		OP  ->S  SO3  ->S  SAP  ->S  PLC
	SEVERITY = 0.33		OP  ->S  FAULTMNGR  ->S  SAP  ->E  SFM  ->E  PLC
	SEVERITY = 0.33		OP  ->S  SO3  ->S  FAULTMNGR  ->S  SAP  ->E  SFM  ->E  PLC
	SEVERITY = 0.33		OP  ->S  SAP  ->E  SFM  ->E  PLC
	SEVERITY = 0.33		OP  ->S  FAULTMNGR  ->S  SO3  ->S  SAP  ->E  SFM  ->E  PLC
	SEVERITY = 0.33		OP  ->S  SO3  ->S  SAP  ->E  SFM  ->E  PLC
	SEVERITY = 0.33		OP  ->S  FAULTMNGR  ->S  SO3  ->E  PLC
	SEVERITY = 0.67		OP  ->S  SAP  ->S  FAULTMNGR  ->S  SO3  ->E  PLC
	SEVERITY = 0.50		OP  ->S  SO3  ->E  PLC
	SEVERITY = 0.33		OP  ->S  FAULTMNGR  ->S  SAP  ->E  SO3  ->E  PLC
	SEVERITY = 0.33		OP  ->S  SAP  ->E  SO3  ->E  PLC
	SEVERITY = 0.50		OP  ->S  FAULTMNGR  ->S  SAP  ->S  SO3  ->E  PLC
	SEVERITY = 0.67		OP  ->S  SAP  ->S  SO3  ->E  PLC
	SEVERITY = 0.33		OP  ->S  FAULTMNGR  ->S  SAP  ->E  SFM  ->S  PLC
	SEVERITY = 0.33		OP  ->S  SO3  ->S  FAULTMNGR  ->S  SAP  ->E  SFM  ->S  PLC
	SEVERITY = 0.33		OP  ->S  SAP  ->E  SFM  ->S  PLC
	SEVERITY = 0.33		OP  ->S  FAULTMNGR  ->S  SO3  ->S  SAP  ->E  SFM  ->S  PLC
	SEVERITY = 0.33		OP  ->S  SO3  ->S  SAP  ->E  SFM  ->S  PLC
	SEVERITY = 0.33		OP  ->S  FAULTMNGR  ->S  SO3  ->S  PLC
	SEVERITY = 0.67		OP  ->S  SAP  ->S  FAULTMNGR  ->S  SO3  ->S  PLC
	SEVERITY = 0.50		OP  ->S  SO3  ->S  PLC
	SEVERITY = 0.33		OP  ->S  FAULTMNGR  ->S  SAP  ->E  SO3  ->S  PLC
	SEVERITY = 0.33		OP  ->S  SAP  ->E  SO3  ->S  PLC
	SEVERITY = 0.50		OP  ->S  FAULTMNGR  ->S  SAP  ->S  SO3  ->S  PLC
	SEVERITY = 0.67		OP  ->S  SAP  ->S  SO3  ->S  PLC
------------------------
IMPLICIT PATHS: OP ~>+ PLC
------------------------
	OP  ->S  SAP  ->S  FAULTMNGR  ->S  PLC
	OP  ->S  SO3  ->S  SAP  ->S  FAULTMNGR  ->S  PLC
	OP  ->S  SO3  ->S  FAULTMNGR  ->S  PLC
	OP  ->S  SAP  ->E  SO3  ->S  FAULTMNGR  ->S  PLC
	OP  ->S  SAP  ->S  SO3  ->S  FAULTMNGR  ->S  PLC
	OP  ->S  PLC
	OP  ->S  FAULTMNGR  ->S  SAP  ->S  PLC
	OP  ->S  SO3  ->S  FAULTMNGR  ->S  SAP  ->S  PLC
	OP  ->S  SAP  ->S  PLC
	OP  ->S  FAULTMNGR  ->S  SO3  ->S  SAP  ->S  PLC
	OP  ->S  SO3  ->S  SAP  ->S  PLC
	OP  ->S  FAULTMNGR  ->S  SAP  ->E  SFM  ->E  PLC
	OP  ->S  SO3  ->S  FAULTMNGR  ->S  SAP  ->E  SFM  ->E  PLC
	OP  ->S  SAP  ->E  SFM  ->E  PLC
	OP  ->S  FAULTMNGR  ->S  SO3  ->S  SAP  ->E  SFM  ->E  PLC
	OP  ->S  SO3  ->S  SAP  ->E  SFM  ->E  PLC
	OP  ->S  FAULTMNGR  ->S  SO3  ->E  PLC
	OP  ->S  SAP  ->S  FAULTMNGR  ->S  SO3  ->E  PLC
	OP  ->S  SO3  ->E  PLC
	OP  ->S  FAULTMNGR  ->S  SAP  ->E  SO3  ->E  PLC
	OP  ->S  SAP  ->E  SO3  ->E  PLC
	OP  ->S  FAULTMNGR  ->S  SAP  ->S  SO3  ->E  PLC
	OP  ->S  SAP  ->S  SO3  ->E  PLC
	OP  ->S  FAULTMNGR  ->S  SAP  ->E  SFM  ->S  PLC
	OP  ->S  SO3  ->S  FAULTMNGR  ->S  SAP  ->E  SFM  ->S  PLC
	OP  ->S  SAP  ->E  SFM  ->S  PLC
	OP  ->S  FAULTMNGR  ->S  SO3  ->S  SAP  ->E  SFM  ->S  PLC
	OP  ->S  SO3  ->S  SAP  ->E  SFM  ->S  PLC
	OP  ->S  FAULTMNGR  ->S  SO3  ->S  PLC
	OP  ->S  SAP  ->S  FAULTMNGR  ->S  SO3  ->S  PLC
	OP  ->S  SO3  ->S  PLC
	OP  ->S  FAULTMNGR  ->S  SAP  ->E  SO3  ->S  PLC
	OP  ->S  SAP  ->E  SO3  ->S  PLC
	OP  ->S  FAULTMNGR  ->S  SAP  ->S  SO3  ->S  PLC
	OP  ->S  SAP  ->S  SO3  ->S  PLC

OP ~>+ SAP: True
------------------------
ALL PATHS: OP ~>+ SAP
------------------------
	SEVERITY = 0.00		OP  ->S  FAULTMNGR  ->S  SAP
	SEVERITY = 0.67		OP  ->S  SO3  ->S  FAULTMNGR  ->S  SAP
	SEVERITY = 1.00		OP  ->S  SAP
	SEVERITY = 0.33		OP  ->S  FAULTMNGR  ->S  SO3  ->S  SAP
	SEVERITY = 1.00		OP  ->S  SO3  ->S  SAP
------------------------
IMPLICIT PATHS: OP ~>+ SAP
------------------------
	OP  ->S  SO3  ->S  FAULTMNGR  ->S  SAP
	OP  ->S  SAP
	OP  ->S  FAULTMNGR  ->S  SO3  ->S  SAP
	OP  ->S  SO3  ->S  SAP

OP ~>+ SFM: True
------------------------
ALL PATHS: OP ~>+ SFM
------------------------
	SEVERITY = 0.33		OP  ->S  FAULTMNGR  ->S  SAP  ->E  SFM
	SEVERITY = 0.67		OP  ->S  SO3  ->S  FAULTMNGR  ->S  SAP  ->E  SFM
	SEVERITY = 0.50		OP  ->S  SAP  ->E  SFM
	SEVERITY = 0.50		OP  ->S  FAULTMNGR  ->S  SO3  ->S  SAP  ->E  SFM
	SEVERITY = 0.67		OP  ->S  SO3  ->S  SAP  ->E  SFM
------------------------
IMPLICIT PATHS: OP ~>+ SFM
------------------------
	OP  ->S  FAULTMNGR  ->S  SAP  ->E  SFM
	OP  ->S  SO3  ->S  FAULTMNGR  ->S  SAP  ->E  SFM
	OP  ->S  SAP  ->E  SFM
	OP  ->S  FAULTMNGR  ->S  SO3  ->S  SAP  ->E  SFM
	OP  ->S  SO3  ->S  SAP  ->E  SFM

OP ~>+ SO3: True
------------------------
ALL PATHS: OP ~>+ SO3
------------------------
	SEVERITY = 0.00		OP  ->S  FAULTMNGR  ->S  SO3
	SEVERITY = 0.67		OP  ->S  SAP  ->S  FAULTMNGR  ->S  SO3
	SEVERITY = 1.00		OP  ->S  SO3
	SEVERITY = 0.33		OP  ->S  FAULTMNGR  ->S  SAP  ->E  SO3
	SEVERITY = 0.50		OP  ->S  SAP  ->E  SO3
	SEVERITY = 0.33		OP  ->S  FAULTMNGR  ->S  SAP  ->S  SO3
	SEVERITY = 1.00		OP  ->S  SAP  ->S  SO3
------------------------
IMPLICIT PATHS: OP ~>+ SO3
------------------------
	OP  ->S  SAP  ->S  FAULTMNGR  ->S  SO3
	OP  ->S  SO3
	OP  ->S  FAULTMNGR  ->S  SAP  ->E  SO3
	OP  ->S  SAP  ->E  SO3
	OP  ->S  FAULTMNGR  ->S  SAP  ->S  SO3
	OP  ->S  SAP  ->S  SO3

PLC ~>+ CFP1: True
------------------------
ALL PATHS: PLC ~>+ CFP1
------------------------
	SEVERITY = 0.00		PLC  ->E  CFP1
------------------------
IMPLICIT PATHS: PLC ~>+ CFP1
------------------------

PLC ~>+ CFP2: True
------------------------
ALL PATHS: PLC ~>+ CFP2
------------------------
	SEVERITY = 0.00		PLC  ->E  CFP2
------------------------
IMPLICIT PATHS: PLC ~>+ CFP2
------------------------

PLC ~>+ FAULTMNGR: False
------------------------
ALL PATHS: PLC ~>+ FAULTMNGR
------------------------
------------------------
IMPLICIT PATHS: PLC ~>+ FAULTMNGR
------------------------

PLC ~>+ OP: False
------------------------
ALL PATHS: PLC ~>+ OP
------------------------
------------------------
IMPLICIT PATHS: PLC ~>+ OP
------------------------

PLC ~>+ SAP: False
------------------------
ALL PATHS: PLC ~>+ SAP
------------------------
------------------------
IMPLICIT PATHS: PLC ~>+ SAP
------------------------

PLC ~>+ SFM: False
------------------------
ALL PATHS: PLC ~>+ SFM
------------------------
------------------------
IMPLICIT PATHS: PLC ~>+ SFM
------------------------

PLC ~>+ SO3: False
------------------------
ALL PATHS: PLC ~>+ SO3
------------------------
------------------------
IMPLICIT PATHS: PLC ~>+ SO3
------------------------

SAP ~>+ CFP1: True
------------------------
ALL PATHS: SAP ~>+ CFP1
------------------------
	SEVERITY = 0.00		SAP  ->S  FAULTMNGR  ->S  PLC  ->E  CFP1
	SEVERITY = 0.00		SAP  ->E  SO3  ->S  FAULTMNGR  ->S  PLC  ->E  CFP1
	SEVERITY = 0.25		SAP  ->S  SO3  ->S  FAULTMNGR  ->S  PLC  ->E  CFP1
	SEVERITY = 0.50		SAP  ->S  FAULTMNGR  ->S  OP  ->S  PLC  ->E  CFP1
	SEVERITY = 0.40		SAP  ->E  SO3  ->S  FAULTMNGR  ->S  OP  ->S  PLC  ->E  CFP1
	SEVERITY = 0.60		SAP  ->S  SO3  ->S  FAULTMNGR  ->S  OP  ->S  PLC  ->E  CFP1
	SEVERITY = 0.50		SAP  ->S  PLC  ->E  CFP1
	SEVERITY = 0.00		SAP  ->E  SFM  ->E  PLC  ->E  CFP1
	SEVERITY = 0.33		SAP  ->S  FAULTMNGR  ->S  SO3  ->E  PLC  ->E  CFP1
	SEVERITY = 0.33		SAP  ->S  FAULTMNGR  ->S  OP  ->S  SO3  ->E  PLC  ->E  CFP1
	SEVERITY = 0.00		SAP  ->E  SO3  ->E  PLC  ->E  CFP1
	SEVERITY = 0.33		SAP  ->S  SO3  ->E  PLC  ->E  CFP1
	SEVERITY = 0.00		SAP  ->E  SFM  ->S  PLC  ->E  CFP1
	SEVERITY = 0.33		SAP  ->S  FAULTMNGR  ->S  SO3  ->S  PLC  ->E  CFP1
	SEVERITY = 0.33		SAP  ->S  FAULTMNGR  ->S  OP  ->S  SO3  ->S  PLC  ->E  CFP1
	SEVERITY = 0.00		SAP  ->E  SO3  ->S  PLC  ->E  CFP1
	SEVERITY = 0.33		SAP  ->S  SO3  ->S  PLC  ->E  CFP1
------------------------
IMPLICIT PATHS: SAP ~>+ CFP1
------------------------
	SAP  ->S  SO3  ->S  FAULTMNGR  ->S  PLC  ->E  CFP1
	SAP  ->S  FAULTMNGR  ->S  OP  ->S  PLC  ->E  CFP1
	SAP  ->E  SO3  ->S  FAULTMNGR  ->S  OP  ->S  PLC  ->E  CFP1
	SAP  ->S  SO3  ->S  FAULTMNGR  ->S  OP  ->S  PLC  ->E  CFP1
	SAP  ->S  PLC  ->E  CFP1
	SAP  ->S  FAULTMNGR  ->S  SO3  ->E  PLC  ->E  CFP1
	SAP  ->S  FAULTMNGR  ->S  OP  ->S  SO3  ->E  PLC  ->E  CFP1
	SAP  ->S  SO3  ->E  PLC  ->E  CFP1
	SAP  ->S  FAULTMNGR  ->S  SO3  ->S  PLC  ->E  CFP1
	SAP  ->S  FAULTMNGR  ->S  OP  ->S  SO3  ->S  PLC  ->E  CFP1
	SAP  ->S  SO3  ->S  PLC  ->E  CFP1

SAP ~>+ CFP2: True
------------------------
ALL PATHS: SAP ~>+ CFP2
------------------------
	SEVERITY = 0.00		SAP  ->S  FAULTMNGR  ->S  PLC  ->E  CFP2
	SEVERITY = 0.00		SAP  ->E  SO3  ->S  FAULTMNGR  ->S  PLC  ->E  CFP2
	SEVERITY = 0.25		SAP  ->S  SO3  ->S  FAULTMNGR  ->S  PLC  ->E  CFP2
	SEVERITY = 0.50		SAP  ->S  FAULTMNGR  ->S  OP  ->S  PLC  ->E  CFP2
	SEVERITY = 0.40		SAP  ->E  SO3  ->S  FAULTMNGR  ->S  OP  ->S  PLC  ->E  CFP2
	SEVERITY = 0.60		SAP  ->S  SO3  ->S  FAULTMNGR  ->S  OP  ->S  PLC  ->E  CFP2
	SEVERITY = 0.50		SAP  ->S  PLC  ->E  CFP2
	SEVERITY = 0.00		SAP  ->E  SFM  ->E  PLC  ->E  CFP2
	SEVERITY = 0.33		SAP  ->S  FAULTMNGR  ->S  SO3  ->E  PLC  ->E  CFP2
	SEVERITY = 0.33		SAP  ->S  FAULTMNGR  ->S  OP  ->S  SO3  ->E  PLC  ->E  CFP2
	SEVERITY = 0.00		SAP  ->E  SO3  ->E  PLC  ->E  CFP2
	SEVERITY = 0.33		SAP  ->S  SO3  ->E  PLC  ->E  CFP2
	SEVERITY = 0.00		SAP  ->E  SFM  ->S  PLC  ->E  CFP2
	SEVERITY = 0.33		SAP  ->S  FAULTMNGR  ->S  SO3  ->S  PLC  ->E  CFP2
	SEVERITY = 0.33		SAP  ->S  FAULTMNGR  ->S  OP  ->S  SO3  ->S  PLC  ->E  CFP2
	SEVERITY = 0.00		SAP  ->E  SO3  ->S  PLC  ->E  CFP2
	SEVERITY = 0.33		SAP  ->S  SO3  ->S  PLC  ->E  CFP2
------------------------
IMPLICIT PATHS: SAP ~>+ CFP2
------------------------
	SAP  ->S  SO3  ->S  FAULTMNGR  ->S  PLC  ->E  CFP2
	SAP  ->S  FAULTMNGR  ->S  OP  ->S  PLC  ->E  CFP2
	SAP  ->E  SO3  ->S  FAULTMNGR  ->S  OP  ->S  PLC  ->E  CFP2
	SAP  ->S  SO3  ->S  FAULTMNGR  ->S  OP  ->S  PLC  ->E  CFP2
	SAP  ->S  PLC  ->E  CFP2
	SAP  ->S  FAULTMNGR  ->S  SO3  ->E  PLC  ->E  CFP2
	SAP  ->S  FAULTMNGR  ->S  OP  ->S  SO3  ->E  PLC  ->E  CFP2
	SAP  ->S  SO3  ->E  PLC  ->E  CFP2
	SAP  ->S  FAULTMNGR  ->S  SO3  ->S  PLC  ->E  CFP2
	SAP  ->S  FAULTMNGR  ->S  OP  ->S  SO3  ->S  PLC  ->E  CFP2
	SAP  ->S  SO3  ->S  PLC  ->E  CFP2

SAP ~>+ FAULTMNGR: True
------------------------
ALL PATHS: SAP ~>+ FAULTMNGR
------------------------
	SEVERITY = 0.00		SAP  ->S  FAULTMNGR
	SEVERITY = 0.00		SAP  ->E  SO3  ->S  FAULTMNGR
	SEVERITY = 0.50		SAP  ->S  SO3  ->S  FAULTMNGR
------------------------
IMPLICIT PATHS: SAP ~>+ FAULTMNGR
------------------------
	SAP  ->S  SO3  ->S  FAULTMNGR

SAP ~>+ OP: True
------------------------
ALL PATHS: SAP ~>+ OP
------------------------
	SEVERITY = 0.00		SAP  ->S  FAULTMNGR  ->S  OP
	SEVERITY = 0.00		SAP  ->E  SO3  ->S  FAULTMNGR  ->S  OP
	SEVERITY = 0.33		SAP  ->S  SO3  ->S  FAULTMNGR  ->S  OP
------------------------
IMPLICIT PATHS: SAP ~>+ OP
------------------------
	SAP  ->S  SO3  ->S  FAULTMNGR  ->S  OP

SAP ~>+ PLC: True
------------------------
ALL PATHS: SAP ~>+ PLC
------------------------
	SEVERITY = 0.00		SAP  ->S  FAULTMNGR  ->S  PLC
	SEVERITY = 0.00		SAP  ->E  SO3  ->S  FAULTMNGR  ->S  PLC
	SEVERITY = 0.33		SAP  ->S  SO3  ->S  FAULTMNGR  ->S  PLC
	SEVERITY = 0.33		SAP  ->S  FAULTMNGR  ->S  OP  ->S  PLC
	SEVERITY = 0.25		SAP  ->E  SO3  ->S  FAULTMNGR  ->S  OP  ->S  PLC
	SEVERITY = 0.50		SAP  ->S  SO3  ->S  FAULTMNGR  ->S  OP  ->S  PLC
	SEVERITY = 0.00		SAP  ->S  PLC
	SEVERITY = 0.00		SAP  ->E  SFM  ->E  PLC
	SEVERITY = 0.67		SAP  ->S  FAULTMNGR  ->S  SO3  ->E  PLC
	SEVERITY = 0.50		SAP  ->S  FAULTMNGR  ->S  OP  ->S  SO3  ->E  PLC
	SEVERITY = 0.00		SAP  ->E  SO3  ->E  PLC
	SEVERITY = 0.50		SAP  ->S  SO3  ->E  PLC
	SEVERITY = 0.00		SAP  ->E  SFM  ->S  PLC
	SEVERITY = 0.67		SAP  ->S  FAULTMNGR  ->S  SO3  ->S  PLC
	SEVERITY = 0.50		SAP  ->S  FAULTMNGR  ->S  OP  ->S  SO3  ->S  PLC
	SEVERITY = 0.00		SAP  ->E  SO3  ->S  PLC
	SEVERITY = 0.50		SAP  ->S  SO3  ->S  PLC
------------------------
IMPLICIT PATHS: SAP ~>+ PLC
------------------------
	SAP  ->S  SO3  ->S  FAULTMNGR  ->S  PLC
	SAP  ->S  FAULTMNGR  ->S  OP  ->S  PLC
	SAP  ->E  SO3  ->S  FAULTMNGR  ->S  OP  ->S  PLC
	SAP  ->S  SO3  ->S  FAULTMNGR  ->S  OP  ->S  PLC
	SAP  ->S  FAULTMNGR  ->S  SO3  ->E  PLC
	SAP  ->S  FAULTMNGR  ->S  OP  ->S  SO3  ->E  PLC
	SAP  ->S  SO3  ->E  PLC
	SAP  ->S  FAULTMNGR  ->S  SO3  ->S  PLC
	SAP  ->S  FAULTMNGR  ->S  OP  ->S  SO3  ->S  PLC
	SAP  ->S  SO3  ->S  PLC

SAP ~>+ SFM: True
------------------------
ALL PATHS: SAP ~>+ SFM
------------------------
	SEVERITY = 0.00		SAP  ->E  SFM
------------------------
IMPLICIT PATHS: SAP ~>+ SFM
------------------------

SAP ~>+ SO3: True
------------------------
ALL PATHS: SAP ~>+ SO3
------------------------
	SEVERITY = 0.50		SAP  ->S  FAULTMNGR  ->S  SO3
	SEVERITY = 0.33		SAP  ->S  FAULTMNGR  ->S  OP  ->S  SO3
	SEVERITY = 0.00		SAP  ->E  SO3
	SEVERITY = 1.00		SAP  ->S  SO3
------------------------
IMPLICIT PATHS: SAP ~>+ SO3
------------------------
	SAP  ->S  FAULTMNGR  ->S  SO3
	SAP  ->S  FAULTMNGR  ->S  OP  ->S  SO3
	SAP  ->S  SO3

SFM ~>+ CFP1: True
------------------------
ALL PATHS: SFM ~>+ CFP1
------------------------
	SEVERITY = 0.00		SFM  ->E  PLC  ->E  CFP1
	SEVERITY = 0.00		SFM  ->S  PLC  ->E  CFP1
------------------------
IMPLICIT PATHS: SFM ~>+ CFP1
------------------------

SFM ~>+ CFP2: True
------------------------
ALL PATHS: SFM ~>+ CFP2
------------------------
	SEVERITY = 0.00		SFM  ->E  PLC  ->E  CFP2
	SEVERITY = 0.00		SFM  ->S  PLC  ->E  CFP2
------------------------
IMPLICIT PATHS: SFM ~>+ CFP2
------------------------

SFM ~>+ FAULTMNGR: False
------------------------
ALL PATHS: SFM ~>+ FAULTMNGR
------------------------
------------------------
IMPLICIT PATHS: SFM ~>+ FAULTMNGR
------------------------

SFM ~>+ OP: False
------------------------
ALL PATHS: SFM ~>+ OP
------------------------
------------------------
IMPLICIT PATHS: SFM ~>+ OP
------------------------

SFM ~>+ PLC: True
------------------------
ALL PATHS: SFM ~>+ PLC
------------------------
	SEVERITY = 0.00		SFM  ->E  PLC
	SEVERITY = 0.00		SFM  ->S  PLC
------------------------
IMPLICIT PATHS: SFM ~>+ PLC
------------------------

SFM ~>+ SAP: False
------------------------
ALL PATHS: SFM ~>+ SAP
------------------------
------------------------
IMPLICIT PATHS: SFM ~>+ SAP
------------------------

SFM ~>+ SO3: False
------------------------
ALL PATHS: SFM ~>+ SO3
------------------------
------------------------
IMPLICIT PATHS: SFM ~>+ SO3
------------------------

SO3 ~>+ CFP1: True
------------------------
ALL PATHS: SO3 ~>+ CFP1
------------------------
	SEVERITY = 0.00		SO3  ->S  SAP  ->S  FAULTMNGR  ->S  PLC  ->E  CFP1
	SEVERITY = 0.00		SO3  ->S  FAULTMNGR  ->S  PLC  ->E  CFP1
	SEVERITY = 0.50		SO3  ->S  SAP  ->S  FAULTMNGR  ->S  OP  ->S  PLC  ->E  CFP1
	SEVERITY = 0.50		SO3  ->S  FAULTMNGR  ->S  OP  ->S  PLC  ->E  CFP1
	SEVERITY = 0.67		SO3  ->S  FAULTMNGR  ->S  SAP  ->S  PLC  ->E  CFP1
	SEVERITY = 0.60		SO3  ->S  FAULTMNGR  ->S  OP  ->S  SAP  ->S  PLC  ->E  CFP1
	SEVERITY = 0.67		SO3  ->S  SAP  ->S  PLC  ->E  CFP1
	SEVERITY = 0.00		SO3  ->S  FAULTMNGR  ->S  SAP  ->E  SFM  ->E  PLC  ->E  CFP1
	SEVERITY = 0.00		SO3  ->S  FAULTMNGR  ->S  OP  ->S  SAP  ->E  SFM  ->E  PLC  ->E  CFP1
	SEVERITY = 0.00		SO3  ->S  SAP  ->E  SFM  ->E  PLC  ->E  CFP1
	SEVERITY = 0.00		SO3  ->E  PLC  ->E  CFP1
	SEVERITY = 0.00		SO3  ->S  FAULTMNGR  ->S  SAP  ->E  SFM  ->S  PLC  ->E  CFP1
	SEVERITY = 0.00		SO3  ->S  FAULTMNGR  ->S  OP  ->S  SAP  ->E  SFM  ->S  PLC  ->E  CFP1
	SEVERITY = 0.00		SO3  ->S  SAP  ->E  SFM  ->S  PLC  ->E  CFP1
	SEVERITY = 0.00		SO3  ->S  PLC  ->E  CFP1
------------------------
IMPLICIT PATHS: SO3 ~>+ CFP1
------------------------
	SO3  ->S  SAP  ->S  FAULTMNGR  ->S  OP  ->S  PLC  ->E  CFP1
	SO3  ->S  FAULTMNGR  ->S  OP  ->S  PLC  ->E  CFP1
	SO3  ->S  FAULTMNGR  ->S  SAP  ->S  PLC  ->E  CFP1
	SO3  ->S  FAULTMNGR  ->S  OP  ->S  SAP  ->S  PLC  ->E  CFP1
	SO3  ->S  SAP  ->S  PLC  ->E  CFP1

SO3 ~>+ CFP2: True
------------------------
ALL PATHS: SO3 ~>+ CFP2
------------------------
	SEVERITY = 0.00		SO3  ->S  SAP  ->S  FAULTMNGR  ->S  PLC  ->E  CFP2
	SEVERITY = 0.00		SO3  ->S  FAULTMNGR  ->S  PLC  ->E  CFP2
	SEVERITY = 0.50		SO3  ->S  SAP  ->S  FAULTMNGR  ->S  OP  ->S  PLC  ->E  CFP2
	SEVERITY = 0.50		SO3  ->S  FAULTMNGR  ->S  OP  ->S  PLC  ->E  CFP2
	SEVERITY = 0.67		SO3  ->S  FAULTMNGR  ->S  SAP  ->S  PLC  ->E  CFP2
	SEVERITY = 0.60		SO3  ->S  FAULTMNGR  ->S  OP  ->S  SAP  ->S  PLC  ->E  CFP2
	SEVERITY = 0.67		SO3  ->S  SAP  ->S  PLC  ->E  CFP2
	SEVERITY = 0.00		SO3  ->S  FAULTMNGR  ->S  SAP  ->E  SFM  ->E  PLC  ->E  CFP2
	SEVERITY = 0.00		SO3  ->S  FAULTMNGR  ->S  OP  ->S  SAP  ->E  SFM  ->E  PLC  ->E  CFP2
	SEVERITY = 0.00		SO3  ->S  SAP  ->E  SFM  ->E  PLC  ->E  CFP2
	SEVERITY = 0.00		SO3  ->E  PLC  ->E  CFP2
	SEVERITY = 0.00		SO3  ->S  FAULTMNGR  ->S  SAP  ->E  SFM  ->S  PLC  ->E  CFP2
	SEVERITY = 0.00		SO3  ->S  FAULTMNGR  ->S  OP  ->S  SAP  ->E  SFM  ->S  PLC  ->E  CFP2
	SEVERITY = 0.00		SO3  ->S  SAP  ->E  SFM  ->S  PLC  ->E  CFP2
	SEVERITY = 0.00		SO3  ->S  PLC  ->E  CFP2
------------------------
IMPLICIT PATHS: SO3 ~>+ CFP2
------------------------
	SO3  ->S  SAP  ->S  FAULTMNGR  ->S  OP  ->S  PLC  ->E  CFP2
	SO3  ->S  FAULTMNGR  ->S  OP  ->S  PLC  ->E  CFP2
	SO3  ->S  FAULTMNGR  ->S  SAP  ->S  PLC  ->E  CFP2
	SO3  ->S  FAULTMNGR  ->S  OP  ->S  SAP  ->S  PLC  ->E  CFP2
	SO3  ->S  SAP  ->S  PLC  ->E  CFP2

SO3 ~>+ FAULTMNGR: True
------------------------
ALL PATHS: SO3 ~>+ FAULTMNGR
------------------------
	SEVERITY = 0.50		SO3  ->S  SAP  ->S  FAULTMNGR
	SEVERITY = 0.00		SO3  ->S  FAULTMNGR
------------------------
IMPLICIT PATHS: SO3 ~>+ FAULTMNGR
------------------------
	SO3  ->S  SAP  ->S  FAULTMNGR

SO3 ~>+ OP: True
------------------------
ALL PATHS: SO3 ~>+ OP
------------------------
	SEVERITY = 0.33		SO3  ->S  SAP  ->S  FAULTMNGR  ->S  OP
	SEVERITY = 0.00		SO3  ->S  FAULTMNGR  ->S  OP
------------------------
IMPLICIT PATHS: SO3 ~>+ OP
------------------------
	SO3  ->S  SAP  ->S  FAULTMNGR  ->S  OP

SO3 ~>+ PLC: True
------------------------
ALL PATHS: SO3 ~>+ PLC
------------------------
	SEVERITY = 0.33		SO3  ->S  SAP  ->S  FAULTMNGR  ->S  PLC
	SEVERITY = 0.00		SO3  ->S  FAULTMNGR  ->S  PLC
	SEVERITY = 0.50		SO3  ->S  SAP  ->S  FAULTMNGR  ->S  OP  ->S  PLC
	SEVERITY = 0.33		SO3  ->S  FAULTMNGR  ->S  OP  ->S  PLC
	SEVERITY = 0.67		SO3  ->S  FAULTMNGR  ->S  SAP  ->S  PLC
	SEVERITY = 0.50		SO3  ->S  FAULTMNGR  ->S  OP  ->S  SAP  ->S  PLC
	SEVERITY = 0.50		SO3  ->S  SAP  ->S  PLC
	SEVERITY = 0.33		SO3  ->S  FAULTMNGR  ->S  SAP  ->E  SFM  ->E  PLC
	SEVERITY = 0.33		SO3  ->S  FAULTMNGR  ->S  OP  ->S  SAP  ->E  SFM  ->E  PLC
	SEVERITY = 0.33		SO3  ->S  SAP  ->E  SFM  ->E  PLC
	SEVERITY = 0.00		SO3  ->E  PLC
	SEVERITY = 0.33		SO3  ->S  FAULTMNGR  ->S  SAP  ->E  SFM  ->S  PLC
	SEVERITY = 0.33		SO3  ->S  FAULTMNGR  ->S  OP  ->S  SAP  ->E  SFM  ->S  PLC
	SEVERITY = 0.33		SO3  ->S  SAP  ->E  SFM  ->S  PLC
	SEVERITY = 0.00		SO3  ->S  PLC
------------------------
IMPLICIT PATHS: SO3 ~>+ PLC
------------------------
	SO3  ->S  SAP  ->S  FAULTMNGR  ->S  PLC
	SO3  ->S  SAP  ->S  FAULTMNGR  ->S  OP  ->S  PLC
	SO3  ->S  FAULTMNGR  ->S  OP  ->S  PLC
	SO3  ->S  FAULTMNGR  ->S  SAP  ->S  PLC
	SO3  ->S  FAULTMNGR  ->S  OP  ->S  SAP  ->S  PLC
	SO3  ->S  SAP  ->S  PLC
	SO3  ->S  FAULTMNGR  ->S  SAP  ->E  SFM  ->E  PLC
	SO3  ->S  FAULTMNGR  ->S  OP  ->S  SAP  ->E  SFM  ->E  PLC
	SO3  ->S  SAP  ->E  SFM  ->E  PLC
	SO3  ->S  FAULTMNGR  ->S  SAP  ->E  SFM  ->S  PLC
	SO3  ->S  FAULTMNGR  ->S  OP  ->S  SAP  ->E  SFM  ->S  PLC
	SO3  ->S  SAP  ->E  SFM  ->S  PLC

SO3 ~>+ SAP: True
------------------------
ALL PATHS: SO3 ~>+ SAP
------------------------
	SEVERITY = 0.50		SO3  ->S  FAULTMNGR  ->S  SAP
	SEVERITY = 0.33		SO3  ->S  FAULTMNGR  ->S  OP  ->S  SAP
	SEVERITY = 1.00		SO3  ->S  SAP
------------------------
IMPLICIT PATHS: SO3 ~>+ SAP
------------------------
	SO3  ->S  FAULTMNGR  ->S  SAP
	SO3  ->S  FAULTMNGR  ->S  OP  ->S  SAP
	SO3  ->S  SAP

SO3 ~>+ SFM: True
------------------------
ALL PATHS: SO3 ~>+ SFM
------------------------
	SEVERITY = 0.67		SO3  ->S  FAULTMNGR  ->S  SAP  ->E  SFM
	SEVERITY = 0.50		SO3  ->S  FAULTMNGR  ->S  OP  ->S  SAP  ->E  SFM
	SEVERITY = 0.50		SO3  ->S  SAP  ->E  SFM
------------------------
IMPLICIT PATHS: SO3 ~>+ SFM
------------------------
	SO3  ->S  FAULTMNGR  ->S  SAP  ->E  SFM
	SO3  ->S  FAULTMNGR  ->S  OP  ->S  SAP  ->E  SFM
	SO3  ->S  SAP  ->E  SFM


------------------------
ANALYSIS SUMMARY        
------------------------
CFP1 ~>+ CFP2: 0/0
CFP1 ~>+ FAULTMNGR: 0/0
CFP1 ~>+ OP: 0/0
CFP1 ~>+ PLC: 0/0
CFP1 ~>+ SAP: 0/0
CFP1 ~>+ SFM: 0/0
CFP1 ~>+ SO3: 0/0
CFP2 ~>+ CFP1: 0/0
CFP2 ~>+ FAULTMNGR: 0/0
CFP2 ~>+ OP: 0/0
CFP2 ~>+ PLC: 0/0
CFP2 ~>+ SAP: 0/0
CFP2 ~>+ SFM: 0/0
CFP2 ~>+ SO3: 0/0
FAULTMNGR ~>+ CFP1: 13/26
FAULTMNGR ~>+ CFP2: 13/26
FAULTMNGR ~>+ OP: 0/1
FAULTMNGR ~>+ PLC: 25/26
FAULTMNGR ~>+ SAP: 3/4
FAULTMNGR ~>+ SFM: 4/4
FAULTMNGR ~>+ SO3: 5/6
OP ~>+ CFP1: 19/36
OP ~>+ CFP2: 19/36
OP ~>+ FAULTMNGR: 5/6
OP ~>+ PLC: 35/36
OP ~>+ SAP: 4/5
OP ~>+ SFM: 5/5
OP ~>+ SO3: 6/7
PLC ~>+ CFP1: 0/1
PLC ~>+ CFP2: 0/1
PLC ~>+ FAULTMNGR: 0/0
PLC ~>+ OP: 0/0
PLC ~>+ SAP: 0/0
PLC ~>+ SFM: 0/0
PLC ~>+ SO3: 0/0
SAP ~>+ CFP1: 11/17
SAP ~>+ CFP2: 11/17
SAP ~>+ FAULTMNGR: 1/3
SAP ~>+ OP: 1/3
SAP ~>+ PLC: 10/17
SAP ~>+ SFM: 0/1
SAP ~>+ SO3: 3/4
SFM ~>+ CFP1: 0/2
SFM ~>+ CFP2: 0/2
SFM ~>+ FAULTMNGR: 0/0
SFM ~>+ OP: 0/0
SFM ~>+ PLC: 0/2
SFM ~>+ SAP: 0/0
SFM ~>+ SO3: 0/0
SO3 ~>+ CFP1: 5/15
SO3 ~>+ CFP2: 5/15
SO3 ~>+ FAULTMNGR: 1/2
SO3 ~>+ OP: 1/2
SO3 ~>+ PLC: 12/15
SO3 ~>+ SAP: 3/3
SO3 ~>+ SFM: 3/3
------------------------
TOTAL: 223/349
------------------------

